%YAML 1.1
%TAG !u! tag:unity3d.com,2011:
--- !u!1045 &1
EditorBuildSettings:
  m_ObjectHideFlags: 0
  serializedVersion: 2
  m_Scenes:
  - enabled: 1
    path: Assets/Playa1.unity
    guid: 58034df9bcbe7ee42bb7b5afcfd08012
  - enabled: 1
    path: Assets/LoadingScreen.unity
    guid: 80683cb74bc19ef4c859e11daf18cf3d
